Chapter 6 Bearbejdning dag 2 | Analyse og visualisering af biologiske datasæt - 2022
…
Figure 6.2: wide til long med Iris

Til venstre har vi målingerne i datasættet over fire forskellige kolonner som hedder Sepal.Length, Sepal.Width, Petal.Length og Petal.Width, og en ekstra kolon der skelne imellem de tre Species. Til højre har vi fået alle målingerne ind i en enkel kolon der hedder values, og så bruger man en anden ‘nøgle’ kolon der hedder name til at fortælle os om det er en måling for Sepal.Length eller Sepal.Width osv.

Man specificer cols=-Species, fordi det kun er kolonnerne med målinger som vi gerne vil have samlet i en enkel kolon, og det inkluderer så ikke Species.

Ovenstående er den samme som at fortælle, hvilke variabler skal med - vi vil have alle numeriske variabler i en enkel kolon.

iris %>% pivot_longer(cols = where(is.numeric))

## # A tibble: 600 × 3
##    Species name         value
##    <fct>   <chr>        <dbl>
##  1 setosa  Sepal.Length   5.1
##  2 setosa  Sepal.Width    3.5
##  3 setosa  Petal.Length   1.4
##  4 setosa  Petal.Width    0.2
##  5 setosa  Sepal.Length   4.9
##  6 setosa  Sepal.Width    3  
##  7 setosa  Petal.Length   1.4
##  8 setosa  Petal.Width    0.2
##  9 setosa  Sepal.Length   4.7
## 10 setosa  Sepal.Width    3.2
## # … with 590 more rows
…
## # A tibble: 2 × 22
##   gene     SRX033480 SRX033488 SRX033481 SRX033489 SRX033482 SRX033490 SRX033483
##   <chr>        <dbl>     <dbl>     <dbl>     <dbl>     <dbl>     <dbl>     <dbl>
## 1 ENSMUSG…      158.      182.      119.      155.     167.       164.      180.
## 2 ENSMUSG…      132.      117.      100.      116.      88.1      125.      124.
## # … with 14 more variables: SRX033476 <dbl>, SRX033478 <dbl>, SRX033479 <dbl>,
## #   SRX033472 <dbl>, SRX033473 <dbl>, SRX033474 <dbl>, SRX033475 <dbl>,
## #   SRX033491 <dbl>, SRX033484 <dbl>, SRX033492 <dbl>, SRX033485 <dbl>,
## #   SRX033493 <dbl>, SRX033486 <dbl>, SRX033494 <dbl>

Lad os også kigge på de sample oplysninger, som kan være nyttige at inddrage i vores analyse/plotter for at undersøge eventualle batch effekter osv.

coldata

## # A tibble: 21 × 5
##    column    num.tech.reps strain   batch lane.number
##    <chr>             <int> <chr>    <int>       <int>
##  1 SRX033480             1 C57BL.6J     6           1
##  2 SRX033488             1 C57BL.6J     7           1
##  3 SRX033481             1 C57BL.6J     6           2
##  4 SRX033489             1 C57BL.6J     7           2
##  5 SRX033482             1 C57BL.6J     6           3
##  6 SRX033490             1 C57BL.6J     7           3
##  7 SRX033483             1 C57BL.6J     6           5
##  8 SRX033476             1 C57BL.6J     4           6
##  9 SRX033478             1 C57BL.6J     4           7
## 10 SRX033479             1 C57BL.6J     4           8
## # … with 11 more rows
…
