Chapter 7 Functional programming med purrr-pakken | Analyse og visualisering af biologiske datasæt - 2022
…
Jo mere funktionen bliver indviklet, jo mere mening det giver at specificere den udenfor den map() funktion:

my_function <- ~(.x - mean(.x))^2 + 0.5*(.x - sd(.x))^2 #a long pointless function

iris %>%
  select(-Species) %>%
  map_df(my_function) #beregne my_function for hver kolon og output en dataramme 

## # A tibble: 150 × 4
##    Sepal.Length Sepal.Width Petal.Length Petal.Width
##           <dbl>       <dbl>        <dbl>       <dbl>
##  1         9.68        4.89         5.63       1.16 
##  2         9.18        3.29         5.63       1.16 
##  3         8.80        3.84         6.15       1.16 
##  4         8.66        3.55         5.13       1.16 
##  5         9.41        5.30         5.63       1.16 
##  6        10.6         6.71         4.24       0.705
##  7         8.66        4.51         5.63       0.916
##  8         9.41        4.51         5.13       1.16 
##  9         8.46        3.06         5.63       1.16 
## 10         9.18        3.55         5.13       1.43 
## # … with 140 more rows
…
Der er flere map funktion der tager flere input fk. pmap - jeg har ikke tid til at dække dem men du kan godt læse om dem hvis du har bruge for dem: https://purrr.tidyverse.org/reference/map2.html

7.5.2 Transformer numeriske variabler

Som sidste bemærk, her er en brugbar variant af map - her kan man lave noget på kun bestemte variabler - for eksempel i følgende anvender jeg funktionen log2() på alle numeriske variabler. Bemærk at man er nødt til at anvende as_tibble() igen bagefter (som kun fungerere hvis alle variabler har stadig samme længde efter map_if()):

eukaryotes %>% map_if(is.numeric,~log2(.x)) %>% as_tibble()

## # A tibble: 11,508 × 19
##    organism_name     taxid bioproject_acce… bioproject_id group subgroup size_mb
##    <chr>             <dbl> <chr>                    <dbl> <chr> <chr>      <dbl>
##  1 Pyropia yezoensis  11.4 PRJNA589917              19.2  Other Other       6.75
##  2 Emiliania huxley…  18.1 PRJNA77753               16.2  Prot… Other P…    7.39
##  3 Arabidopsis thal…  11.9 PRJNA10719               13.4  Plan… Land Pl…    6.90
##  4 Glycine max        11.9 PRJNA19861               14.3  Plan… Land Pl…    9.94
##  5 Medicago truncat…  11.9 PRJNA10791               13.4  Plan… Land Pl…    8.69
##  6 Solanum lycopers…  12.0 PRJNA119                  6.89 Plan… Land Pl…    9.69
##  7 Hordeum vulgare …  16.8 PRJEB34217               19.1  Plan… Land Pl…   12.1 
##  8 Oryza sativa Jap…  15.3 PRJNA12269               13.6  Plan… Land Pl…    8.55
##  9 Triticum aestivum  12.2 PRJNA392179              18.6  Plan… Land Pl…   13.9 
## 10 Zea mays           12.2 PRJNA10769               13.4  Plan… Land Pl…   11.1 
## # … with 11,498 more rows, and 12 more variables: gc <dbl>,
## #   assembly_accession <chr>, replicons <chr>, wgs <chr>, scaffolds <dbl>,
## #   genes <dbl>, proteins <dbl>, release_date <date>, modify_date <date>,
## #   status <chr>, center <chr>, biosample_accession <chr>
…
