Chapter 9 Clustering | Visualisering af biologiske datasæt - 2022
…
glance
single line summary

augment
Connect information from the model to the original dataset

tidy
multi-line summary

For at lave et plot af de clusters kan det være nyttigt at benytte augment. Her kan man se, at vi har fået en kolon der hedder .cluster med i den oprindelige dataramme (jeg flyttet kolonen til første plads i følgende kode så man kunne se den i de output af kursusnotater).

kc1 <- augment(kclust, penguins) #clustering = første plads, data = anden plads
kc1 %>% select(.cluster,all_of(names(penguins)))

## # A tibble: 333 × 9
##    .cluster species island    bill_length_mm bill_depth_mm flipper_length_mm
##    <fct>    <fct>   <fct>              <dbl>         <dbl>             <int>
##  1 3        Adelie  Torgersen           39.1          18.7               181
##  2 3        Adelie  Torgersen           39.5          17.4               186
##  3 3        Adelie  Torgersen           40.3          18                 195
##  4 3        Adelie  Torgersen           36.7          19.3               193
##  5 3        Adelie  Torgersen           39.3          20.6               190
##  6 3        Adelie  Torgersen           38.9          17.8               181
##  7 3        Adelie  Torgersen           39.2          19.6               195
##  8 3        Adelie  Torgersen           41.1          17.6               182
##  9 3        Adelie  Torgersen           38.6          21.2               191
## 10 3        Adelie  Torgersen           34.6          21.1               198
## # … with 323 more rows, and 3 more variables: body_mass_g <int>, sex <fct>,
## #   year <fct>
…
