Chapter 7 Forbine tables, iterations og funktioner | Visualisering af biologiske datasæt - 2022
…
Figure 7.1: left_join graphical demonstration (source https://mgimond.github.io/ES218/Week03c.html)

7.2.2 Anvende left_join() for vores fiktiv dataset.

For at bedste forstå funktionen left_join() skal vi afprøve den med vores datasæt. Her tager vi udgangspunkt i data_long og så tilføjer de data fra sample_info. Her angiver vi by = "sample" fordi det er navnet til kolonnen som vi geerne vil bruge til at forbinde de to datarammer - altså, det er med i begge to datarammer, så left_join() kan bruge den som en slags nøgle til at vide, hvor alle de forskellige oplysninger skal tilføjes.

data_long_join <- data_long  %>% left_join(sample_info,by = "sample")
data_long_join

## # A tibble: 600 × 6
##        x sample       measurement condition replicate batch
##    <int> <chr>              <dbl> <chr>     <chr>     <chr>
##  1     2 control_rep1      -0.622 control   1         A    
##  2     2 control_rep2      12.1   control   2         B    
##  3     2 control_rep3       8.62  control   3         A    
##  4     2 treat_rep1        10.5   treat     1         B    
##  5     2 treat_rep2        -5.79  treat     2         A    
##  6     2 treat_rep3        22.3   treat     3         B    
##  7     4 control_rep1      -5.75  control   1         A    
##  8     4 control_rep2      26.1   control   2         B    
##  9     4 control_rep3      -8.93  control   3         A    
## 10     4 treat_rep1       -13.3   treat     1         B    
## # … with 590 more rows
…
Jo mere funktionen bliver indviklet, jo mere mening det giver at specificere den udenfor den map() funktion:

my_function <- ~(.x - mean(.x))^2 + 0.5*(.x - sd(.x))^2 #en lang funktion

iris %>%
  select(-Species) %>%
  map_df(my_function) #beregne my_function for hver kolon og output en dataramme 

## # A tibble: 150 × 4
##    Sepal.Length Sepal.Width Petal.Length Petal.Width
##           <dbl>       <dbl>        <dbl>       <dbl>
##  1         9.68        4.89         5.63       1.16 
##  2         9.18        3.29         5.63       1.16 
##  3         8.80        3.84         6.15       1.16 
##  4         8.66        3.55         5.13       1.16 
##  5         9.41        5.30         5.63       1.16 
##  6        10.6         6.71         4.24       0.705
##  7         8.66        4.51         5.63       0.916
##  8         9.41        4.51         5.13       1.16 
##  9         8.46        3.06         5.63       1.16 
## 10         9.18        3.55         5.13       1.43 
## # … with 140 more rows
…
