Chapter 12 Tidymodels og introduktion til maskin læring | Visualisering af biologiske datasæt - 2022
…
mtcars_fit %>% collect_metrics()

## # A tibble: 2 × 4
##   .metric .estimator .estimate .config             
##   <chr>   <chr>          <dbl> <chr>               
## 1 rmse    standard     319.    Preprocessor1_Model1
## 2 rsq     standard       0.820 Preprocessor1_Model1

# Obtain test set predictions data frame
mtcars_results <- mtcars_fit %>% 
                 collect_predictions()
# View results
mtcars_results

## # A tibble: 84 × 5
##    id               .pred  .row body_mass_g .config             
##    <chr>            <dbl> <int>       <int> <chr>               
##  1 train/test split 4085.     9        3800 Preprocessor1_Model1
##  2 train/test split 4104.    10        4400 Preprocessor1_Model1
##  3 train/test split 3658.    12        3450 Preprocessor1_Model1
##  4 train/test split 3295.    14        3325 Preprocessor1_Model1
##  5 train/test split 3816.    17        3600 Preprocessor1_Model1
##  6 train/test split 3622.    18        3800 Preprocessor1_Model1
##  7 train/test split 3951.    22        3550 Preprocessor1_Model1
##  8 train/test split 3622.    23        3200 Preprocessor1_Model1
##  9 train/test split 3928.    35        4650 Preprocessor1_Model1
## 10 train/test split 4129.    37        3900 Preprocessor1_Model1
## # … with 74 more rows
…
mtcars_fit_SVM %>% collect_metrics()

## # A tibble: 2 × 4
##   .metric  .estimator .estimate .config             
##   <chr>    <chr>          <dbl> <chr>               
## 1 accuracy binary         0.782 Preprocessor1_Model1
## 2 roc_auc  binary         0.825 Preprocessor1_Model1

# Obtain test set predictions data frame
mtcars_results <- mtcars_fit_RF %>% 
                 collect_predictions()
# View results
mtcars_results

## # A tibble: 179 × 7
##    id               .pred_yes .pred_no  .row .pred_class survived .config       
##    <chr>                <dbl>    <dbl> <int> <fct>       <fct>    <chr>         
##  1 train/test split    0.700    0.300     11 yes         yes      Preprocessor1…
##  2 train/test split    0.0756   0.924     19 no          yes      Preprocessor1…
##  3 train/test split    0.253    0.747     23 no          yes      Preprocessor1…
##  4 train/test split    0.510    0.490     24 yes         no       Preprocessor1…
##  5 train/test split    0.485    0.515     25 no          no       Preprocessor1…
##  6 train/test split    0.613    0.387     27 yes         no       Preprocessor1…
##  7 train/test split    0.134    0.866     29 no          no       Preprocessor1…
##  8 train/test split    0.124    0.876     38 no          no       Preprocessor1…
##  9 train/test split    0.936    0.0638    40 yes         yes      Preprocessor1…
## 10 train/test split    0.848    0.152     42 yes         yes      Preprocessor1…
## # … with 169 more rows
…
